[
  {
    "keyword": "Feature",
    "name": "Realease Notes search",
    "line": 1,
    "id": "realease-notes-search",
    "tags": [],
    "uri": "ReleaseNotesSearch.feature",
    "elements": [
      {
        "id": "realease-notes-search;check-search-for-realease-notes",
        "keyword": "Scenario",
        "line": 4,
        "name": "Check search for Realease Notes",
        "tags": [
          {
            "name": "@focus",
            "line": 3
          }
        ],
        "type": "scenario",
        "steps": [
          {
            "arguments": [],
            "keyword": "Given ",
            "line": 5,
            "name": "I am on telnyx page",
            "result": {
              "status": "passed",
              "duration": 2986000000
            }
          },
          {
            "arguments": [],
            "keyword": "When ",
            "line": 6,
            "name": "I click “Realease Notes” and enter search data",
            "result": {
              "status": "passed",
              "duration": 1530000000
            }
          },
          {
            "arguments": [],
            "keyword": "Then ",
            "line": 7,
            "name": "I should see a note",
            "result": {
              "status": "passed",
              "duration": 3047000000
            }
          }
        ]
      }
    ]
  }
]